%YAML 1.1
%TAG !u! tag:unity3d.com,2011:
--- !u!114 &-6781818464238847081
MonoBehaviour:
  m_ObjectHideFlags: 3
  m_CorrespondingSourceObject: {fileID: 0}
  m_PrefabInstance: {fileID: 0}
  m_PrefabAsset: {fileID: 0}
  m_GameObject: {fileID: 0}
  m_Enabled: 1
  m_EditorHideFlags: 0
  m_Script: {fileID: 11500000, guid: 464ccca2a3ef3ce429c63a5b5cd3be58, type: 3}
  m_Name: SubSurfaceScattering
  m_EditorClassIdentifier: 
  active: 1
  m_AdvancedMode: 0
  rayTracing:
    m_OverrideState: 1
    m_Value: 1
  sampleCount:
    m_OverrideState: 1
    m_Value: 1
    min: 1
    max: 32
--- !u!114 &-6628199643619382093
MonoBehaviour:
  m_ObjectHideFlags: 3
  m_CorrespondingSourceObject: {fileID: 0}
  m_PrefabInstance: {fileID: 0}
  m_PrefabAsset: {fileID: 0}
  m_GameObject: {fileID: 0}
  m_Enabled: 1
  m_EditorHideFlags: 0
  m_Script: {fileID: 11500000, guid: 7ddcec8a8eb2d684d833ac8f5d26aebd, type: 3}
  m_Name: HDShadowSettings
  m_EditorClassIdentifier: 
  active: 1
  m_AdvancedMode: 0
  maxShadowDistance:
    m_OverrideState: 1
    m_Value: 500
    min: 0
  directionalTransmissionMultiplier:
    m_OverrideState: 1
    m_Value: 1
    min: 0
    max: 1
  cascadeShadowSplitCount:
    m_OverrideState: 1
    m_Value: 4
    min: 1
    max: 4
  cascadeShadowSplit0:
    m_OverrideState: 1
    m_Value: 0.05
  cascadeShadowSplit1:
    m_OverrideState: 1
    m_Value: 0.15
  cascadeShadowSplit2:
    m_OverrideState: 1
    m_Value: 0.3
  cascadeShadowBorder0:
    m_OverrideState: 1
    m_Value: 0
  cascadeShadowBorder1:
    m_OverrideState: 1
    m_Value: 0
  cascadeShadowBorder2:
    m_OverrideState: 1
    m_Value: 0
  cascadeShadowBorder3:
    m_OverrideState: 1
    m_Value: 0
--- !u!114 &-5269320224830952388
MonoBehaviour:
  m_ObjectHideFlags: 3
  m_CorrespondingSourceObject: {fileID: 0}
  m_PrefabInstance: {fileID: 0}
  m_PrefabAsset: {fileID: 0}
  m_GameObject: {fileID: 0}
  m_Enabled: 1
  m_EditorHideFlags: 0
  m_Script: {fileID: 11500000, guid: 56b145d2b9ee1ac4f846968484e7485a, type: 3}
  m_Name: ContactShadows
  m_EditorClassIdentifier: 
  active: 1
  m_AdvancedMode: 0
  quality:
    m_OverrideState: 1
    m_Value: 1
  enable:
    m_OverrideState: 1
    m_Value: 1
  length:
    m_OverrideState: 1
    m_Value: 0.15
    min: 0
    max: 1
  opacity:
    m_OverrideState: 1
    m_Value: 1
    min: 0
    max: 1
  distanceScaleFactor:
    m_OverrideState: 1
    m_Value: 0.5
    min: 0
    max: 1
  maxDistance:
    m_OverrideState: 1
    m_Value: 50
    min: 0
  minDistance:
    m_OverrideState: 1
    m_Value: 0
    min: 0
  fadeDistance:
    m_OverrideState: 1
    m_Value: 5
    min: 0
  fadeInDistance:
    m_OverrideState: 1
    m_Value: 0
    min: 0
  rayBias:
    m_OverrideState: 1
    m_Value: 0.2
    min: 0
    max: 1
  thicknessScale:
    m_OverrideState: 1
    m_Value: 0.15
    min: 0.02
    max: 1
  m_SampleCount:
    m_OverrideState: 1
    m_Value: 10
    min: 4
    max: 64
--- !u!114 &-4219416621461233950
MonoBehaviour:
  m_ObjectHideFlags: 3
  m_CorrespondingSourceObject: {fileID: 0}
  m_PrefabInstance: {fileID: 0}
  m_PrefabAsset: {fileID: 0}
  m_GameObject: {fileID: 0}
  m_Enabled: 1
  m_EditorHideFlags: 0
  m_Script: {fileID: 11500000, guid: d877a03bef431a847adca8ab343db3e1, type: 3}
  m_Name: RayTracingSettings
  m_EditorClassIdentifier: 
  active: 1
  m_AdvancedMode: 0
  rayBias:
    m_OverrideState: 1
    m_Value: 0.001
    min: 0
    max: 0.1
  extendShadowCulling:
    m_OverrideState: 1
    m_Value: 0
  extendCameraCulling:
    m_OverrideState: 1
    m_Value: 0
  directionalShadowRayLength:
    m_OverrideState: 1
    m_Value: 1000
    min: 0.01
--- !u!114 &11400000
MonoBehaviour:
  m_ObjectHideFlags: 0
  m_CorrespondingSourceObject: {fileID: 0}
  m_PrefabInstance: {fileID: 0}
  m_PrefabAsset: {fileID: 0}
  m_GameObject: {fileID: 0}
  m_Enabled: 1
  m_EditorHideFlags: 0
  m_Script: {fileID: 11500000, guid: d7fd9488000d3734a9e00ee676215985, type: 3}
  m_Name: Main Camera Profile
  m_EditorClassIdentifier: 
  components:
  - {fileID: 6977438328052315459}
  - {fileID: 5982488260273922908}
  - {fileID: -5269320224830952388}
  - {fileID: -6628199643619382093}
  - {fileID: 1643261842323842809}
  - {fileID: -4219416621461233950}
  - {fileID: 612345051796231571}
  - {fileID: 3896775599445121730}
  - {fileID: -6781818464238847081}
--- !u!114 &612345051796231571
MonoBehaviour:
  m_ObjectHideFlags: 3
  m_CorrespondingSourceObject: {fileID: 0}
  m_PrefabInstance: {fileID: 0}
  m_PrefabAsset: {fileID: 0}
  m_GameObject: {fileID: 0}
  m_Enabled: 1
  m_EditorHideFlags: 0
  m_Script: {fileID: 11500000, guid: d877ec3e844f2ca46830012e8e79319b, type: 3}
  m_Name: PhysicallyBasedSky
  m_EditorClassIdentifier: 
  active: 1
  m_AdvancedMode: 0
  rotation:
    m_OverrideState: 1
    m_Value: 0
    min: 0
    max: 360
  skyIntensityMode:
    m_OverrideState: 1
    m_Value: 0
  exposure:
    m_OverrideState: 1
    m_Value: 0
  multiplier:
    m_OverrideState: 1
    m_Value: 1
    min: 0
  upperHemisphereLuxValue:
    m_OverrideState: 1
    m_Value: 1
    min: 0
  upperHemisphereLuxColor:
    m_OverrideState: 1
    m_Value: {x: 0, y: 0, z: 0}
  desiredLuxValue:
    m_OverrideState: 1
    m_Value: 20000
  updateMode:
    m_OverrideState: 1
    m_Value: 0
  updatePeriod:
    m_OverrideState: 1
    m_Value: 0
    min: 0
  includeSunInBaking:
    m_OverrideState: 1
    m_Value: 0
  m_SkyVersion: 1
  m_ObsoleteEarthPreset:
    m_OverrideState: 1
    m_Value: 1
  type:
    m_OverrideState: 1
    m_Value: 1
  sphericalMode:
    m_OverrideState: 1
    m_Value: 1
  seaLevel:
    m_OverrideState: 1
    m_Value: 0
  planetaryRadius:
    m_OverrideState: 1
    m_Value: 6378100
    min: 0
  planetCenterPosition:
    m_OverrideState: 1
    m_Value: {x: 0, y: -6378100, z: 0}
  airDensityR:
    m_OverrideState: 1
    m_Value: 0.04534
    min: 0
    max: 1
  airDensityG:
    m_OverrideState: 1
    m_Value: 0.10237241
    min: 0
    max: 1
  airDensityB:
    m_OverrideState: 1
    m_Value: 0.23264056
    min: 0
    max: 1
  airTint:
    m_OverrideState: 1
    m_Value: {r: 0.9, g: 0.9, b: 1, a: 1}
    hdr: 0
    showAlpha: 0
    showEyeDropper: 1
  airMaximumAltitude:
    m_OverrideState: 1
    m_Value: 55261.973
    min: 0
  aerosolDensity:
    m_OverrideState: 1
    m_Value: 0.01192826
    min: 0
    max: 1
  aerosolTint:
    m_OverrideState: 1
    m_Value: {r: 0.9, g: 0.9, b: 0.9, a: 1}
    hdr: 0
    showAlpha: 0
    showEyeDropper: 1
  aerosolMaximumAltitude:
    m_OverrideState: 1
    m_Value: 8289.296
    min: 0
  aerosolAnisotropy:
    m_OverrideState: 1
    m_Value: 0
    min: -1
    max: 1
  numberOfBounces:
    m_OverrideState: 1
    m_Value: 8
    min: 1
    max: 10
  groundTint:
    m_OverrideState: 1
    m_Value: {r: 0.4, g: 0.25, b: 0.15, a: 1}
    hdr: 0
    showAlpha: 0
    showEyeDropper: 0
  groundColorTexture:
    m_OverrideState: 1
    m_Value: {fileID: 0}
  groundEmissionTexture:
    m_OverrideState: 1
    m_Value: {fileID: 0}
  groundEmissionMultiplier:
    m_OverrideState: 1
    m_Value: 1
    min: 0
  planetRotation:
    m_OverrideState: 1
    m_Value: {x: 0, y: 0, z: 0}
  spaceEmissionTexture:
    m_OverrideState: 1
    m_Value: {fileID: 0}
  spaceEmissionMultiplier:
    m_OverrideState: 1
    m_Value: 1
    min: 0
  spaceRotation:
    m_OverrideState: 1
    m_Value: {x: 0, y: 0, z: 0}
  colorSaturation:
    m_OverrideState: 1
    m_Value: 1
    min: 0
    max: 1
  alphaSaturation:
    m_OverrideState: 1
    m_Value: 1
    min: 0
    max: 1
  alphaMultiplier:
    m_OverrideState: 1
    m_Value: 1
    min: 0
    max: 1
  horizonTint:
    m_OverrideState: 1
    m_Value: {r: 1, g: 1, b: 1, a: 1}
    hdr: 0
    showAlpha: 0
    showEyeDropper: 0
  zenithTint:
    m_OverrideState: 1
    m_Value: {r: 1, g: 1, b: 1, a: 1}
    hdr: 0
    showAlpha: 0
    showEyeDropper: 0
  horizonZenithShift:
    m_OverrideState: 1
    m_Value: 0
    min: -1
    max: 1
--- !u!114 &1643261842323842809
MonoBehaviour:
  m_ObjectHideFlags: 3
  m_CorrespondingSourceObject: {fileID: 0}
  m_PrefabInstance: {fileID: 0}
  m_PrefabAsset: {fileID: 0}
  m_GameObject: {fileID: 0}
  m_Enabled: 1
  m_EditorHideFlags: 0
  m_Script: {fileID: 11500000, guid: 46a79c9cffef5cc469553b1341c2ecdf, type: 3}
  m_Name: RecursiveRendering
  m_EditorClassIdentifier: 
  active: 1
  m_AdvancedMode: 0
  enable:
    m_OverrideState: 1
    m_Value: 1
  layerMask:
    m_OverrideState: 1
    m_Value:
      serializedVersion: 2
      m_Bits: 4294967295
  maxDepth:
    m_OverrideState: 1
    m_Value: 4
    min: 1
    max: 10
  rayLength:
    m_OverrideState: 1
    m_Value: 42
    min: 0
    max: 50
  minSmoothness:
    m_OverrideState: 1
    m_Value: 0.5
    min: 0
    max: 1
--- !u!114 &3896775599445121730
MonoBehaviour:
  m_ObjectHideFlags: 3
  m_CorrespondingSourceObject: {fileID: 0}
  m_PrefabInstance: {fileID: 0}
  m_PrefabAsset: {fileID: 0}
  m_GameObject: {fileID: 0}
  m_Enabled: 1
  m_EditorHideFlags: 0
  m_Script: {fileID: 11500000, guid: 0d7593b3a9277ac4696b20006c21dde2, type: 3}
  m_Name: VisualEnvironment
  m_EditorClassIdentifier: 
  active: 1
  m_AdvancedMode: 0
  skyType:
    m_OverrideState: 1
    m_Value: 4
  skyAmbientMode:
    m_OverrideState: 1
    m_Value: 1
  fogType:
    m_OverrideState: 1
    m_Value: 0
--- !u!114 &5982488260273922908
MonoBehaviour:
  m_ObjectHideFlags: 3
  m_CorrespondingSourceObject: {fileID: 0}
  m_PrefabInstance: {fileID: 0}
  m_PrefabAsset: {fileID: 0}
  m_GameObject: {fileID: 0}
  m_Enabled: 1
  m_EditorHideFlags: 0
  m_Script: {fileID: 11500000, guid: 2d08ce26990eb1a4a9177b860541e702, type: 3}
  m_Name: Exposure
  m_EditorClassIdentifier: 
  active: 1
  m_AdvancedMode: 0
  mode:
    m_OverrideState: 1
    m_Value: 3
  meteringMode:
    m_OverrideState: 1
    m_Value: 2
  luminanceSource:
    m_OverrideState: 1
    m_Value: 1
  fixedExposure:
    m_OverrideState: 1
    m_Value: -4.7952046
  compensation:
    m_OverrideState: 1
    m_Value: 1.91
  limitMin:
    m_OverrideState: 1
    m_Value: -10
  limitMax:
    m_OverrideState: 1
    m_Value: 20
  curveMap:
    m_OverrideState: 1
    m_Value:
      serializedVersion: 2
      m_Curve:
      - serializedVersion: 3
        time: -10
        value: -10
        inSlope: 0
        outSlope: 1
        tangentMode: 0
        weightedMode: 0
        inWeight: 0
        outWeight: 0
      - serializedVersion: 3
        time: 20
        value: 20
        inSlope: 1
        outSlope: 0
        tangentMode: 0
        weightedMode: 0
        inWeight: 0
        outWeight: 0
      m_PreInfinity: 2
      m_PostInfinity: 2
      m_RotationOrder: 4
  limitMinCurveMap:
    m_OverrideState: 1
    m_Value:
      serializedVersion: 2
      m_Curve:
      - serializedVersion: 3
        time: -10
        value: -12
        inSlope: 0
        outSlope: 1
        tangentMode: 0
        weightedMode: 0
        inWeight: 0
        outWeight: 0
      - serializedVersion: 3
        time: 20
        value: 18
        inSlope: 1
        outSlope: 0
        tangentMode: 0
        weightedMode: 0
        inWeight: 0
        outWeight: 0
      m_PreInfinity: 2
      m_PostInfinity: 2
      m_RotationOrder: 4
  limitMaxCurveMap:
    m_OverrideState: 1
    m_Value:
      serializedVersion: 2
      m_Curve:
      - serializedVersion: 3
        time: -10
        value: -8
        inSlope: 0
        outSlope: 1
        tangentMode: 0
        weightedMode: 0
        inWeight: 0
        outWeight: 0
      - serializedVersion: 3
        time: 20
        value: 22
        inSlope: 1
        outSlope: 0
        tangentMode: 0
        weightedMode: 0
        inWeight: 0
        outWeight: 0
      m_PreInfinity: 2
      m_PostInfinity: 2
      m_RotationOrder: 4
  adaptationMode:
    m_OverrideState: 1
    m_Value: 1
  adaptationSpeedDarkToLight:
    m_OverrideState: 1
    m_Value: 3
    min: 0.001
  adaptationSpeedLightToDark:
    m_OverrideState: 1
    m_Value: 1
    min: 0.001
  weightTextureMask:
    m_OverrideState: 1
    m_Value: {fileID: 0}
  histogramPercentages:
    m_OverrideState: 1
    m_Value: {x: 40, y: 90}
    min: 0
    max: 100
  histogramUseCurveRemapping:
    m_OverrideState: 1
    m_Value: 0
  targetMidGray:
    m_OverrideState: 1
    m_Value: 0
  centerAroundExposureTarget:
    m_OverrideState: 1
    m_Value: 0
  proceduralCenter:
    m_OverrideState: 1
    m_Value: {x: 0.5, y: 0.5}
  proceduralRadii:
    m_OverrideState: 1
    m_Value: {x: 0.3, y: 0.3}
  maskMinIntensity:
    m_OverrideState: 1
    m_Value: -30
  maskMaxIntensity:
    m_OverrideState: 1
    m_Value: 30
  proceduralSoftness:
    m_OverrideState: 1
    m_Value: 0.5
    min: 0
--- !u!114 &6977438328052315459
MonoBehaviour:
  m_ObjectHideFlags: 3
  m_CorrespondingSourceObject: {fileID: 0}
  m_PrefabInstance: {fileID: 0}
  m_PrefabAsset: {fileID: 0}
  m_GameObject: {fileID: 0}
  m_Enabled: 1
  m_EditorHideFlags: 0
  m_Script: {fileID: 11500000, guid: 9008a067f4d626c4d8bc4bc48f04bb89, type: 3}
  m_Name: AmbientOcclusion
  m_EditorClassIdentifier: 
  active: 1
  m_AdvancedMode: 0
  quality:
    m_OverrideState: 1
    m_Value: 1
  rayTracing:
    m_OverrideState: 1
    m_Value: 1
  intensity:
    m_OverrideState: 1
    m_Value: 0
    min: 0
    max: 4
  directLightingStrength:
    m_OverrideState: 1
    m_Value: 0
    min: 0
    max: 1
  radius:
    m_OverrideState: 1
    m_Value: 2
    min: 0.25
    max: 5
  spatialBilateralAggressiveness:
    m_OverrideState: 1
    m_Value: 0.15
    min: 0
    max: 1
  temporalAccumulation:
    m_OverrideState: 1
    m_Value: 1
  ghostingReduction:
    m_OverrideState: 1
    m_Value: 0.5
    min: 0
    max: 1
  blurSharpness:
    m_OverrideState: 1
    m_Value: 0.1
    min: 0
    max: 1
  layerMask:
    m_OverrideState: 1
    m_Value:
      serializedVersion: 2
      m_Bits: 4294967295
  m_StepCount:
    m_OverrideState: 1
    m_Value: 6
    min: 2
    max: 32
  m_FullResolution:
    m_OverrideState: 1
    m_Value: 0
  m_MaximumRadiusInPixels:
    m_OverrideState: 1
    m_Value: 40
    min: 16
    max: 256
  m_BilateralUpsample:
    m_OverrideState: 1
    m_Value: 1
  m_DirectionCount:
    m_OverrideState: 1
    m_Value: 2
    min: 1
    max: 6
  m_RayLength:
    m_OverrideState: 1
    m_Value: 3
    min: 0.01
  m_SampleCount:
    m_OverrideState: 1
    m_Value: 2
    min: 1
    max: 64
  m_Denoise:
    m_OverrideState: 1
    m_Value: 1
  m_DenoiserRadius:
    m_OverrideState: 1
    m_Value: 0.5
    min: 0.001
    max: 1
